[
["index.html", "Placas y Kits para proyectos Maker Apuntes para la Diplomatura en Robótica UNLaR Capítulo 1 Presentación", " Placas y Kits para proyectos Maker Apuntes para la Diplomatura en Robótica UNLaR Flavio Espeche Nieva 2020-05-24 Capítulo 1 Presentación Este apunte pretende ser una guía muy sencilla sobre las plataformas y kits disponibles para el desarrollo de proyectos maker en entornos educativos. Los temas que se abordan son: Terminología básica. Arduino como plataforma de desarrollo (Hardware y Software). Conceptos fundamentales de hardware libre. Principales modelos de placas Arduino: Nano, Uno, Mega2560, modelos MK y H7. Características generales. Adafruit. Modelo de desarrollo. Productos. Desarrollo de librerías para el ecosistema Maker. STM32. Placas de desarrollo de 32bits. Características. El modelo STM32F103C8T6 “Bluepill”. Espressiff ESP. Modelos ESP8266 y ESP32. Características y aplicaciones. IoT. Integración con MicroPython y Arduino IDE. Kit básico maker. Computadoras de placa reducida: Raspberry Pi 3 y 4. Características. Objetivo. Software: sistemas operativos y lenguajes de programación soportado. Aplicaciones. Orange Pi. Características. Modelos. Software: sistemas operativos y lenguajes de programación soportado. Aplicaciones. Hardkernel Odroid. Software: sistemas operativos y lenguajes de programación soportado. Aplicaciones. Kits Educativo LEGO. Mindstorms EV3. Características. Concepto. Software. Kits Educativos Rasti. Características. Programación basada en bloques. Compatibilidad con Arduino. Kits Educativos independientes: el caso Zimatech. Desarrollo de robots educativos desde cero. Compatibilidad con Arduino. "]
]
